{
  "cl_body": "#ffffff",
  "cl_background": "#ffffff",
  "cl_line": "#cccccc",
  "cl_text": "#333333",
  "cl_headers": "#000000",
  "cl_selected": "#000000",
  "cl_subtext": "#777777",
  "line_width": "1px",
  "font_default": "Trebuchet MS",
  "font_header": "MPlus1pLight",
  "container_width": "500px",
  "nav_padding": "30px"
}